%YAML 1.1
%TAG !u! tag:unity3d.com,2011:
--- !u!78 &1
TagManager:
  serializedVersion: 2
  tags:
  - PlayerReplica
  - PlayerCorpse
  layers:
  - Default
  - TransparentFX
  - Ignore Raycast
  - Player
  - Water
  - UI
  - PlayerReplica
  - Wall
  - Ground
  - Damage
  - Takable
  - DamageIgnore
  - 
  - 
  - 
  - 
  - 
  - 
  - 
  - 
  - 
  - 
  - 
  - 
  - 
  - 
  - 
  - 
  - 
  - 
  - 
  - 
  m_SortingLayers:
  - name: Default
    uniqueID: 0
    locked: 0
  - name: FarBackground
    uniqueID: 2194763607
    locked: 0
  - name: Background
    uniqueID: 3208036277
    locked: 0
  - name: Ground
    uniqueID: 3703350059
    locked: 0
  - name: Props
    uniqueID: 281471007
    locked: 0
  - name: Player
    uniqueID: 2369798773
    locked: 0
  - name: Fg
    uniqueID: 1343580849
    locked: 0
